2020-05-06 00:27:35,048 DEBUG EasyNetQ.PersistentConnection - Trying to connect
2020-05-06 00:27:35,339 DEBUG EasyNetQ.PersistentConnection - OnConnected event fired
2020-05-06 00:27:35,360 INFO EasyNetQ.PersistentConnection - Connected to broker localhost, port 5672, vhost /
2020-05-06 00:27:35,463 DEBUG EasyNetQ.Producer.PersistentChannel - Persistent channel connected
2020-05-06 00:27:35,478 DEBUG EasyNetQ.RabbitAdvancedBus - Declared exchange DataService.DomainModel.mQGenbarcode, DataService: type=topic, durable=True, autoDelete=False, arguments=
2020-05-06 00:27:35,842 DEBUG EasyNetQ.RabbitAdvancedBus - Published to exchange DataService.DomainModel.mQGenbarcode, DataService with routingKey= and correlationId=b341a9b7-3aec-45b0-91b7-ff4bf7e31ca2
2020-05-06 00:27:35,854 DEBUG EasyNetQ.Producer.PersistentChannel - Persistent channel disconnected
2020-05-06 06:17:03,515 DEBUG EasyNetQ.PersistentConnection - Trying to connect
2020-05-06 06:17:03,534 DEBUG EasyNetQ.PersistentConnection - OnConnected event fired
2020-05-06 06:17:03,534 INFO EasyNetQ.PersistentConnection - Connected to broker localhost, port 5672, vhost /
2020-05-06 06:17:03,552 DEBUG EasyNetQ.Producer.PersistentChannel - Persistent channel connected
2020-05-06 06:17:03,554 DEBUG EasyNetQ.RabbitAdvancedBus - Declared exchange DataService.DomainModel.mQGenbarcode, DataService: type=topic, durable=True, autoDelete=False, arguments=
2020-05-06 06:17:03,565 DEBUG EasyNetQ.RabbitAdvancedBus - Published to exchange DataService.DomainModel.mQGenbarcode, DataService with routingKey= and correlationId=b9017c7e-a02d-4aac-b5b7-0f6653f25061
2020-05-06 06:17:03,567 DEBUG EasyNetQ.Producer.PersistentChannel - Persistent channel disconnected
2020-05-06 07:35:22,626 DEBUG EasyNetQ.PersistentConnection - Trying to connect
2020-05-06 07:35:22,705 DEBUG EasyNetQ.PersistentConnection - OnConnected event fired
2020-05-06 07:35:22,710 INFO EasyNetQ.PersistentConnection - Connected to broker localhost, port 5672, vhost /
2020-05-06 07:35:22,744 DEBUG EasyNetQ.Producer.PersistentChannel - Persistent channel connected
2020-05-06 07:35:22,749 DEBUG EasyNetQ.RabbitAdvancedBus - Declared exchange DataService.DomainModel.mQGenbarcode, DataService: type=topic, durable=True, autoDelete=False, arguments=
2020-05-06 07:35:22,855 DEBUG EasyNetQ.RabbitAdvancedBus - Published to exchange DataService.DomainModel.mQGenbarcode, DataService with routingKey= and correlationId=a32240bb-5744-4c83-9e91-a6f2ac03cc09
2020-05-06 07:35:22,858 DEBUG EasyNetQ.Producer.PersistentChannel - Persistent channel disconnected
